{
    "programs": [
      {
        "streams": [
          {
            "start_pts": 1400000,
            "duration_ts": 5000000
          }
        ],
        "tags": {
          "service_name": "Service01",
          "service_provider": "FFmpeg"
        }
      }
    ],
    "format": {
      "duration": "5.000000",
      "size": "1325588"
    }
  }